{
	"weapons": [
		{
			"name" : "Pistol", 
			"range" : 100, 
			"damage" : 8, 
			"cooldown" : 10,
			"duration" : 0,
			"description" : "The basic weapon available to all players. Low range, low cooldown, low damage. Use it when desperate !"
		},
		{
			"name" : "Rifle", 
			"range" : 100, 
			"damage" : 10, 
			"cooldown" : 5,
			"duration" : 0, 
			"description" : "The fastest weapon in the game. It has the lowest cooldown, low damage, low range. Good for assault."
		},
		{
			"name" : "Sniper Rifle", 
			"range" : 400, 
			"damage" : 50, 
			"cooldown" : 30,
			"duration" : 0, 
			"description" : "The most badass weapon in the game - lethal to both the target and the shooter. Huge cooldown time means you're helpless before you blink."
		},
		{
			"name" : "Painkillers", 
			"range" : 50, 
			"damage" : -50, 
			"cooldown" : 30,
			"duration" : 10, 
			"description" : "The painkillers are the warrior's hope for another day, especially if there is a sniper around."
		},
		{
			"name" : "Shield", 
			"range" : 50, 
			"damage" : 0, 
			"cooldown" : 30,
			"duration" : 10, 
			"description" : "The shield allows you to shrug off some of the damage. Don't get too confident, though..."
		},
		{
			"name" : "Radar", 
			"range" : 500, 
			"damage" : 0, 
			"cooldown" : 10,
			"duration" : 10, 
			"description" : "The radar is used to retrieve information such as Profession, Current Weapon, Health about an enemy."
		}
	
	],
	
	"professions" : [
		{
			"title" : "Marine",
			"health" : 150,
			"weapons" : ["Pistol", "Rifle"]
		},
		{
			"title" : "Medic",
			"health" : 100,
			"weapons" : ["Pistol", "Painkillers", "Shield"]
		},
		{
			"title" : "Sniper",
			"health" : 125,
			"weapons" : ["Pistol", "Sniper Rifle"]
		},
		{
			"title" : "Scout",
			"health" : 200,
			"weapons" : ["Pistol", "Radar"]
		}	
	]
    
}

