{
	"type" : "object",
	
	"properties" : {
			
			
			"weapons" : {
	    		"type" : "array",    		
	    		"items" : {
	    			"type":"object",
	    			"properties" : {
	    				"name" : {"type" : "string"},
						"radius" : {"type" : "number"},
						"damage" : {"type" : "number"},
						"cooldown" : {"type" : "number"},
						"duration" : {"type" : "number"},
						"description" : {"type" : "string"} 
	    			}
	    		}
	    	},
	    	
	    	
	    	"professions" : {
	    		"type" : "array",
	    		"items" : {
	    			"type" : "object",
	    			"properties" : {
	    				"title" : {"type" : "string"},
	    				"health" : {"type" : "number"},
	    				"weapons" : {
	    					"type" : "array",
	    					"items" : {"type" : "string"}
	    				}
	    			}
	    		}
	    	}
	    	
	    	 
	}
      
}